[
    {
        "alarm": "Alarm 6", 
        "camera": "camera 4", 
        "date": "1/1/2018", 
        "time": "1:33 pm", 
        "plate": "123 abf",
		"model": "Ferrari", 
        "year": "2010", 
        "colour": "Black", 
        "name": "John Perez", 
        "id": "3.786.899",
		"phone": "424-456 78 90", 
        "img": "car1.jpg", 
        "plateImg": "plate1.jpg"
    }, 
    {
        "alarm": "Alarm 5", 
        "camera": "camera 8", 
        "date": "3/23/2018", 
        "time": "2:54 pm", 
        "plate": "444 ttt",
		"model": "Toyota", 
        "year": "2016", 
        "colour": "Blue", 
        "name": "Pedro Cruz", 
        "id": "4.906.769",
		"phone": "424-332 12 23", 
        "img": "car2.jpg", 
        "plateImg": "plate2.jpg" 
    }, 
    {
        "alarm": "Alarm 1", 
        "camera": "camera 6", 
        "date": "5/21/2018", 
        "time": "4:46 pm", 
        "plate": "656 frt",
		"model": "Ford", 
        "year": "1998", 
        "colour": "Red", 
        "name": "Tom Bahia", 
        "id": "12.400.775",
		"phone": "424-344 22 23", 
        "img": "car3.jpg", 
        "plateImg": "plate3.jpg"
    }, 
    {
        "alarm": "Alarm 3", 
        "camera": "camera 1", 
        "date": "3/2/2018", 
        "time": "9:28 am", 
        "plate": "876 566",
		"model": "Chevrolet", 
        "year": "2014", 
        "colour": "Green", 
        "name": "Juan Lopez", 
        "id": "8.778.009",
		"phone": "424-762 82 32", 
        "img": "car4.jpg", 
        "plateImg": "plate4.jpg" 
    }
]


